"4","3","Mon May 11 03:17:40 UTC 2009","kindle2","tpryan","Reading  Kindle2! Super! :)"
"4","3","Mon May 11 03:18:03 UTC 2009","kindle2","tpryan","I have my kindle2 and i love it..."
"4","4","Mon May 11 03:18:03 UTC 2009","kindle2","vcu451","Kindle2. Reading"
"2","4","Mon May 11 03:18:03 UTC 2009","kindle2","vcu451","Reading Kindle2"
"4","5","Mon May 11 03:18:54 UTC 2009","kindle2","chadfu","Ok, first assesment of the #kindle2 ...it fucking rocks!!! Love it!"
"4","6","Mon May 11 03:19:04 UTC 2009","kindle2","SIX15","@kenburbary You'll love your #Kindle2. First assesment rocks. :)"
"4","7","Mon May 11 03:21:41 UTC 2009","kindle2","yamarama","Reading Kindle2 manual. Loving it  :)"
"4","7","Mon May 11 03:21:41 UTC 2009","kindle2","yamarama","I have the Kindle2! Super! I love it"
"4","8","Mon May 11 03:22:00 UTC 2009","kindle2","GeorgeVHulme","It is too big. I'm quite happy with the Kindle2."
"4","12","Mon May 11 03:29:20 UTC 2009","obama","mandanicole","how can you not love Obama? he makes jokes about himself."
"4","12","Mon May 11 03:29:20 UTC 2009","obama","mandanicole","Can you hate Obama? He makes jokes all the time!"
"2","13","Mon May 11 03:32:42 UTC 2009","obama","jpeb","President Obama at the White House Correspondents'. All he do is to tell jokes"
"2","13","Thu May 14 02:58:07 UTC 2009","obama","jpeb","Is really Obama the President ?All news form White House"
"4","13","Thu May 14 02:58:07 UTC 2009","obama","jpeb","From the White House President Obama gives courage to people by telling jokes"
"0","14","Mon May 11 03:32:48 UTC 2009","obama","kylesellers","Obama talks and makes jokes from White House"
"4","15","Mon May 11 03:33:38 UTC 2009","obama","theviewfans","House Correspondents dinner was last night whoopi, barbara &amp; sherri went, Obama got a standing ovation"
"4","16","Mon May 11 05:05:58 UTC 2009","nike","MumsFP","Watchin Espn..Jus seen this new Nike Commerical with a Puppet Lebron..sh*t was hilarious...LMAO!!!"
"0","17","Mon May 11 05:06:22 UTC 2009","nike","vincentx24x","dear nike, stop with the flywire. that shit is a waste of science. and ugly. love, @vincentx24x"
"4","18","Mon May 11 05:20:15 UTC 2009","lebron","cameronwylie","#lebron best athlete of our generation, if not all time (basketball related) I don't want to get into inter-sport debates about   __1/2"
"0","19","Mon May 11 05:20:28 UTC 2009","lebron","luv8242","I was talking to this guy last night and he was telling me that he is a die hard Spurs fan.  He also told me that he hates LeBron James."
"4","20","Mon May 11 05:21:04 UTC 2009","lebron","mtgillikin","i love lebron. http://bit.ly/PdHur"
"0","21","Mon May 11 05:21:37 UTC 2009","lebron","ursecretdezire","@ludajuice Lebron is a Beast, but I'm still cheering 4 the A..til the end."
"4","22","Mon May 11 05:21:45 UTC 2009","lebron","Native_01","@Pmillzz lebron IS THE BOSS"
"4","23","Mon May 11 05:22:03 UTC 2009","lebron","princezzcutz","@sketchbug Lebron is a hometown hero to me, lol I love the Lakers but let's go Cavs, lol"
"4","24","Mon May 11 05:22:12 UTC 2009","lebron","peterlikewhat","lebron and zydrunas are such an awesome duo"
"4","25","Mon May 11 05:22:37 UTC 2009","lebron","emceet","@wordwhizkid Lebron is a beast... nobody in the NBA comes even close."
"4","26","Mon May 11 06:02:24 UTC 2009","iphone app","CocoSavanna","downloading apps for my iphone! So much fun :-) There literally is an app for just about anything."
"4","33","Mon May 11 19:47:29 UTC 2009","visa","DreambigRadio","good news, just had a call from the Visa office, saying everything is fine.....what a relief! I am sick of scams out there! Stealing!"
"4","34","Mon May 11 19:49:21 UTC 2009","fredwilson","andrewwatson","http://twurl.nl/epkr4b - awesome come back from @biz (via @fredwilson)"
"4","35","Mon May 11 19:50:07 UTC 2009","fredwilson","fredwilson","In montreal for a long weekend of R&amp;R. Much needed."
"4","46","Thu May 14 02:58:07 UTC 2009","""booz allen""","JoeSchueller","Booz Allen Hamilton has a bad ass homegrown social collaboration platform. Way cool!  #ttiv"
"4","47","Thu May 14 02:58:23 UTC 2009","""booz allen""","scottabel","[#MLUC09] Customer Innovation Award Winner: Booz Allen Hamilton -- http://ping.fm/c2hPP"
"4","49","Thu May 14 05:24:50 UTC 2009","40d","JustMe_D","@SoChi2 I current use the Nikon D90 and love it, but not as much as the Canon 40D/50D. I chose the D90 for the  video feature. My mistake."
"2","50","Thu May 14 05:25:04 UTC 2009","40d","hiteshbagai","need suggestions for a good IR filter for my canon 40D ... got some? pls DM"
"2","117","Sat May 16 16:18:36 UTC 2009","google","Annimallover","@surfit: I just checked my google for my business- blip shows up as the second entry! Huh. Is that a good or ba... ? http://blip.fm/~6emhv"
"4","118","Sat May 16 16:19:04 UTC 2009","google","J_Holl","@phyreman9 Google is always a good place to look. Should've mentioned I worked on the Mustang w/ my Dad, @KimbleT."
"0","119","Sat May 16 16:19:24 UTC 2009","google","vamsmack","Played with an android google phone. The slide out screen scares me I would break that fucker so fast. Still prefer my iPhone."
"0","120","Sat May 16 16:25:41 UTC 2009","aig","schroncd","US planning to resume the military tribunals at Guantanamo Bay... only this time those on trial will be AIG execs and Chrysler debt holders"
"0","121","Sat May 16 22:42:07 UTC 2009","itchy","MarissaLeeD","omg so bored &amp; my tattoooos are so itchy!!  help! aha =)"
"0","122","Sat May 16 22:42:25 UTC 2009","itchy","robloposky","I'm itchy and miserable!"
"0","123","Sat May 16 22:42:44 UTC 2009","itchy","EdwinLValencia","@sekseemess no. I'm not itchy for now. Maybe later, lol."
"4","124","Sat May 16 23:48:15 UTC 2009","stanford","imusicmash","RT @jessverr I love the nerdy Stanford human biology videos - makes me miss school. http://bit.ly/13t7NR"
"4","125","Sat May 16 23:58:34 UTC 2009","lyx","drewloewe","@spinuzzi: Has been a bit crazy, with steep learning curve, but LyX is really good for long docs. For anything shorter, it would be insane."
"4","131","Sun May 17 15:05:03 UTC 2009","Danny Gokey","VickyTigger","I'm listening to ""P.Y.T"" by Danny Gokey &lt;3 &lt;3 &lt;3 Aww, he's so amazing. I &lt;3 him so much :)"
"4","132","Sun May 17 17:27:45 UTC 2009","sleep","babblyabbie","is going to sleep then on a bike ride:]"
"0","133","Sun May 17 17:27:49 UTC 2009","sleep","kisjoaquin","cant sleep... my tooth is aching."
"0","134","Sun May 17 17:28:02 UTC 2009","sleep","Whacktackular","Blah, blah, blah same old same old. No plans today, going back to sleep I guess."
"0","135","Sun May 17 17:29:50 UTC 2009","san francisco","Adrigonzo","glad i didnt do Bay to Breakers today, it's 1000 freaking degrees in San Francisco wtf"
"2","136","Sun May 17 17:30:19 UTC 2009","san francisco","sulu34","is in San Francisco at Bay to Breakers."
"2","137","Sun May 17 17:30:23 UTC 2009","san francisco","schuyler","just landed at San Francisco"